                  epoch,         train/box_loss,         train/seg_loss,         train/cls_loss,         train/dfl_loss,   metrics/precision(B),      metrics/recall(B),       metrics/mAP50(B),    metrics/mAP50-95(B),   metrics/precision(M),      metrics/recall(M),       metrics/mAP50(M),    metrics/mAP50-95(M),           val/box_loss,           val/seg_loss,           val/cls_loss,           val/dfl_loss,                 lr/pg0,                 lr/pg1,                 lr/pg2
                      0,                0.81647,                 1.8872,                0.91956,                 1.0493,                0.72228,                0.72463,                0.83634,                0.65199,                0.74934,                0.68194,                0.78872,                0.54643,                 0.8664,                 1.4224,                0.66391,                 1.0226,                 0.0964,                 0.0004,                 0.0004
                      1,                0.89191,                 1.9287,                 1.0245,                 1.0405,                0.71415,                0.73454,                0.83342,                 0.6492,                0.73247,                0.68464,                  0.784,                0.53905,                0.86802,                 1.4296,                0.67117,                 1.0244,               0.091886,             0.00088608,             0.00088608
                      2,                0.80764,                 1.7649,                0.78814,                 1.0311,                0.74331,                0.69469,                0.80942,                0.63654,                 0.7206,                0.67001,                0.77205,                0.53352,                0.88328,                 1.4592,                0.71887,                 1.0336,               0.087357,              0.0013567,              0.0013567
                      3,                0.80963,                 1.7955,                0.83025,                  1.004,                0.71458,                0.71058,                0.80996,                0.63862,                0.73392,                0.67352,                0.77313,                0.52776,                0.88149,                 1.4574,                 0.7173,                 1.0351,               0.082812,              0.0018118,              0.0018118
                      4,                0.76838,                  1.673,                 0.7432,                  1.004,                0.69619,                0.75955,                0.82243,                0.64238,                0.67466,                0.73864,                0.77366,                0.53692,                0.84514,                 1.4127,                0.66912,                 1.0175,               0.078252,              0.0022515,              0.0022515
                      5,                0.74665,                 1.8197,                  0.822,                 1.0164,                 0.7167,                0.76587,                0.82319,                0.64464,                 0.6954,                0.75387,                0.77593,                0.52976,                0.83333,                 1.4047,                0.68734,                 1.0115,               0.073676,              0.0026757,              0.0026757
                      6,                0.71644,                 1.7399,                0.69106,                0.98937,                0.71089,                 0.7511,                0.81035,                0.62804,                0.68594,                0.73542,                0.76776,                0.51985,                0.86505,                 1.4596,                0.74397,                  1.024,               0.069084,              0.0030844,              0.0030844
                      7,                0.83753,                 1.8198,                0.88886,                 1.0479,                0.70967,                 0.7491,                0.81703,                0.63603,                0.74367,                0.70057,                0.77462,                0.52752,                0.85108,                  1.439,                0.78386,                 1.0179,               0.064478,              0.0034777,              0.0034777
                      8,                0.84654,                 1.6415,                0.81084,                 1.0316,                0.67843,                0.68192,                0.77829,                0.60578,                0.66969,                0.68139,                0.74589,                0.49681,                0.89966,                  1.531,                0.86295,                 1.0501,               0.059856,              0.0038555,              0.0038555
                      9,                 0.8257,                 1.7103,                0.74727,                 1.0231,                0.62859,                 0.7984,                0.79176,                0.61186,                0.68114,                0.67586,                   0.75,                0.50332,                0.87909,                 1.4947,                0.83193,                 1.0314,               0.055218,              0.0042178,              0.0042178
                     10,                0.85158,                 1.8231,                0.77627,                 1.0351,                0.61299,                0.80181,                0.79936,                0.61097,                0.63405,                 0.7027,                0.75259,                0.50182,                0.91314,                 1.4953,                0.83518,                 1.0512,               0.050565,              0.0045647,              0.0045647
                     11,                0.82159,                 1.5663,                0.68275,                0.98606,                0.62152,                0.75416,                0.75481,                 0.5726,                0.62176,                0.70436,                0.71276,                0.47541,                0.90744,                 1.5253,                0.87528,                 1.0572,               0.045896,              0.0048961,              0.0048961
                     12,                0.81592,                 1.7517,                0.77278,                 1.0299,                0.66124,                0.66671,                0.74894,                 0.5745,                0.64451,                0.66304,                0.71924,                0.47197,                0.92843,                 1.5172,                0.90952,                 1.0669,               0.041212,               0.005212,               0.005212
                     13,                0.77309,                 1.5884,                0.63331,                0.99933,                0.66083,                0.71062,                0.76242,                0.58906,                0.65197,                0.69507,                0.72949,                0.48132,                0.94819,                 1.5739,                0.93945,                 1.0727,               0.036512,              0.0055125,              0.0055125
                     14,                0.78405,                 1.7161,                 0.6383,                0.99322,                0.56589,                0.69309,                0.73189,                0.57502,                0.54062,                0.65688,                0.70215,                0.46211,                0.97015,                 1.7306,                 1.0668,                 1.0808,               0.031797,              0.0057974,              0.0057974
                     15,                0.78477,                  1.734,                0.72417,                0.99684,                0.57653,                0.64117,                0.68934,                 0.5234,                 0.6047,                0.58895,                0.65682,                0.43004,                0.97254,                  1.736,                 1.0765,                 1.0871,               0.027067,               0.006067,               0.006067
                     16,                0.73335,                 1.7082,                0.64389,                0.97259,                 0.6442,                0.58591,                0.68932,                0.53474,                0.62054,                0.55622,                0.65241,                0.42633,                0.98335,                  1.744,                 1.2436,                 1.0951,               0.022321,               0.006321,               0.006321
                     17,                 0.7533,                 1.5172,                0.72705,                 1.0081,                0.58633,                0.63442,                0.67024,                0.52098,                0.55257,                0.60968,                0.63548,                0.40645,                0.97711,                 1.7234,                  1.247,                 1.0995,                0.01756,              0.0065596,              0.0065596
                     18,                0.84228,                 1.7577,                0.71513,                0.99591,                0.57301,                 0.6423,                0.67588,                0.51049,                0.56937,                0.60099,                0.65581,                 0.4169,                0.98115,                 1.7693,                 1.1764,                 1.0984,               0.012783,              0.0067827,              0.0067827
                     19,                0.83785,                 1.5203,                0.70817,                0.97408,                0.73576,                 0.5193,                0.63296,                0.47063,                0.69585,                0.50353,                0.59716,                0.36532,                0.99905,                 1.9954,                 1.3255,                 1.1064,              0.0079903,              0.0069903,              0.0069903
                     20,                 0.7933,                 1.7785,                0.74924,                 1.0102,                0.61036,                0.55877,                0.66771,                0.51003,                0.68975,                 0.4972,                0.63757,                0.40697,                 1.0187,                 1.8807,                 1.3164,                 1.1006,              0.0069063,              0.0069063,              0.0069063
                     21,                0.76296,                 1.5049,                0.68603,                0.97539,                0.55417,                0.65072,                 0.6652,                0.50226,                0.53523,                0.62378,                0.64687,                0.41957,                0.99332,                 1.8702,                 1.1856,                 1.0994,              0.0069063,              0.0069063,              0.0069063
                     22,                0.82117,                  1.739,                0.70236,                0.98009,                0.54137,                 0.5901,                0.61859,                0.47798,                0.51608,                0.57377,                0.58989,                0.37584,                 1.0206,                 2.0196,                 1.2467,                 1.1379,              0.0067516,              0.0067516,              0.0067516
                     23,                0.79364,                 1.8294,                  0.784,                 1.0112,                0.64761,                0.49666,                0.58571,                0.44657,                0.63681,                0.48673,                0.55789,                 0.3482,                 1.0145,                 2.1205,                 1.2927,                 1.1275,              0.0065969,              0.0065969,              0.0065969
                     24,                0.78432,                 1.8423,                0.76123,                 1.0401,                0.46838,                0.61125,                0.60416,                0.45276,                0.44141,                0.58532,                0.56101,                0.34697,                 1.0169,                 2.0582,                 1.3112,                 1.1334,              0.0064422,              0.0064422,              0.0064422
                     25,                0.86474,                 1.7704,                0.76846,                0.99559,                0.68603,                0.49085,                0.59935,                0.43073,                0.52346,                0.54297,                0.55588,                0.32727,                  1.056,                 2.0404,                 1.3615,                  1.153,              0.0062875,              0.0062875,              0.0062875
                     26,                0.74711,                 1.6554,                0.73323,                 1.0119,                 0.5862,                0.49086,                0.56286,                0.40582,                0.62625,                0.43253,                  0.535,                0.32213,                 1.0848,                 2.2144,                  1.563,                 1.1974,              0.0061328,              0.0061328,              0.0061328
                     27,                0.80757,                 1.7267,                0.79702,                 1.0325,                 0.7313,                0.42467,                0.55322,                0.38638,                0.70322,                0.40909,                0.51182,                0.29262,                 1.0839,                 2.0929,                 1.4974,                 1.2041,              0.0059781,              0.0059781,              0.0059781
                     28,                0.85281,                 1.8028,                0.84178,                 1.0104,                0.61425,                 0.4468,                0.53847,                0.36736,                0.53723,                0.43885,                0.47495,                0.26518,                 1.1246,                 2.1498,                 1.5756,                 1.2164,              0.0058234,              0.0058234,              0.0058234
                     29,                0.82287,                 1.7505,                0.76433,                 1.0163,                0.74704,                0.36926,                0.51923,                0.35233,                0.44165,                0.47925,                0.48451,                0.26757,                 1.1626,                 2.2053,                  1.616,                 1.2443,              0.0056688,              0.0056688,              0.0056688
                     30,                0.78068,                 1.7331,                0.72243,                 1.0166,                0.45679,                0.47917,                0.48953,                0.33589,                0.42674,                0.44488,                0.43298,                0.24167,                 1.1406,                 2.2251,                 1.6716,                 1.2167,              0.0055141,              0.0055141,              0.0055141
                     31,                0.77253,                 1.8906,                0.74587,                 1.0065,                0.63024,                0.41136,                0.50626,                0.35584,                0.53684,                 0.4116,                0.46922,                0.27557,                 1.1179,                 2.0527,                 1.5947,                 1.2038,              0.0053594,              0.0053594,              0.0053594
                     32,                0.77643,                 1.7399,                0.71362,                 1.0346,                0.48131,                0.49242,                0.50202,                0.36208,                0.47757,                0.47963,                0.47641,                0.28957,                 1.1175,                 2.0045,                  1.574,                 1.2004,              0.0052047,              0.0052047,              0.0052047
                     33,                0.86659,                 1.7848,                 0.6747,                 0.9859,                0.46408,                 0.4914,                0.51363,                0.36006,                0.44636,                0.46916,                0.47248,                0.28844,                 1.1399,                 2.0457,                  1.579,                  1.212,                0.00505,                0.00505,                0.00505
                     34,                0.78678,                 1.7932,                0.69842,                 1.0148,                0.51707,                0.42332,                0.49156,                0.35267,                0.50219,                0.41867,                0.46908,                0.28033,                 1.1422,                  2.093,                 1.6555,                 1.2147,              0.0048953,              0.0048953,              0.0048953
                     35,                0.74683,                 1.5261,                0.72702,                 1.0163,                0.65283,                0.34602,                0.46521,                0.32406,                0.43935,                0.39407,                0.42065,                0.25276,                 1.1778,                 2.3682,                 1.8269,                 1.2501,              0.0047406,              0.0047406,              0.0047406
                     36,                0.76973,                  1.571,                0.76541,                 1.0071,                 0.6583,                0.38814,                0.50211,                0.34622,                0.58658,                0.37079,                0.45034,                0.27331,                 1.1354,                 2.1513,                 1.7379,                 1.2164,              0.0045859,              0.0045859,              0.0045859
                     37,                0.84817,                 1.7955,                0.84249,                 1.0382,                0.48438,                0.42979,                0.49492,                0.33736,                0.48561,                0.40248,                0.44873,                0.27107,                 1.1419,                 2.2145,                 1.7227,                 1.2147,              0.0044313,              0.0044313,              0.0044313
                     38,                0.76648,                 1.5782,                 0.6967,                 1.0046,                0.59914,                0.40424,                0.49622,                0.34028,                0.59025,                0.39709,                0.46135,                0.26817,                 1.1286,                 2.1904,                 1.7947,                 1.2031,              0.0042766,              0.0042766,              0.0042766
                     39,                0.76735,                 1.6176,                0.70119,                 1.0075,                0.49504,                0.41259,                0.50511,                0.34809,                0.47524,                0.39802,                0.46282,                0.28962,                 1.1047,                 2.2916,                 1.8526,                 1.2082,              0.0041219,              0.0041219,              0.0041219
                     40,                0.86944,                 1.7388,                0.75359,                 1.0101,                0.54534,                0.39772,                0.49863,                0.34517,                0.53329,                0.39466,                0.46932,                0.28812,                 1.0972,                 2.2957,                  1.857,                 1.2036,              0.0039672,              0.0039672,              0.0039672
                     41,                0.74345,                 1.7396,                0.66717,                0.99308,                0.53298,                0.41246,                0.50432,                0.35218,                0.54405,                0.39944,                0.48356,                0.29336,                  1.108,                  2.311,                 1.9103,                  1.207,              0.0038125,              0.0038125,              0.0038125
                     42,                0.80213,                 1.6228,                0.70589,                 1.0304,                0.55709,                0.38166,                0.47393,                0.32644,                0.55466,                 0.3773,                0.44529,                0.27167,                 1.1165,                  2.342,                  1.914,                 1.2113,              0.0036578,              0.0036578,              0.0036578
                     43,                0.71414,                 1.4365,                0.59712,                  1.011,                0.47805,                0.41028,                 0.4781,                0.33533,                0.47683,                0.40534,                0.45744,                0.27242,                 1.1169,                 2.4261,                 1.9849,                 1.2227,              0.0035031,              0.0035031,              0.0035031
                     44,                0.76465,                 1.4136,                0.61136,                0.96409,                0.47544,                0.40792,                0.48775,                0.33985,                0.52281,                 0.3918,                0.44847,                0.27077,                 1.1099,                 2.3934,                 1.9621,                  1.214,              0.0033484,              0.0033484,              0.0033484
                     45,                0.66703,                 1.5366,                0.60884,                0.95543,                0.49035,                0.40092,                0.48773,                0.33853,                 0.4887,                0.39333,                0.45735,                0.27518,                 1.1162,                 2.5605,                 2.0228,                 1.2065,              0.0031938,              0.0031938,              0.0031938
                     46,                0.77614,                 1.5174,                0.70684,                 1.0118,                 0.4872,                0.40239,                0.48691,                0.34639,                0.49905,                0.36863,                0.44925,                0.26994,                 1.1407,                  2.492,                 2.0364,                 1.2223,              0.0030391,              0.0030391,              0.0030391
                     47,                0.72832,                 1.5007,                0.62542,                0.97894,                0.48288,                0.40813,                 0.4917,                0.35325,                0.47056,                0.38852,                0.46285,                0.28118,                 1.1547,                 2.2889,                 1.9634,                 1.2172,              0.0028844,              0.0028844,              0.0028844
                     48,                0.71592,                 1.5712,                0.64378,                   0.98,                0.47179,                0.39827,                0.48583,                0.35146,                0.45664,                0.38075,                0.45809,                 0.2788,                 1.1583,                 2.2818,                 1.9469,                 1.2182,              0.0027297,              0.0027297,              0.0027297
                     49,                0.70045,                 1.5978,                0.66278,                 1.0003,                0.47147,                0.40597,                 0.4845,                0.35612,                0.46549,                0.39193,                0.45956,                0.27211,                 1.1478,                 2.2964,                 1.9151,                 1.2149,               0.002575,               0.002575,               0.002575
                     50,                0.76037,                 1.6166,                0.65858,                 1.0003,                0.45898,                0.41144,                0.48811,                 0.3561,                0.45474,                0.39564,                0.46047,                0.27655,                 1.1457,                 2.3227,                 1.9409,                 1.2147,              0.0024203,              0.0024203,              0.0024203
